verification/i2c_tb.vcd
$date
	Fri Feb 06 22:37:48 2026
$end
$version
	Icarus Verilog
$end
$timescale
	1ps
$end
$scope module i2c_tb $end
$var wire 1 ! scl $end
$var wire 1 " sda $end
$var wire 1 # sda_in $end
$var wire 1 $ sda_enable $end
$var wire 1 % scl_enable $end
$var wire 2 & error_o [1:0] $end
$var wire 1 ' done $end
$var wire 1 ( busy $end
$var reg 1 ) clk $end
$var reg 8 * data_i [7:0] $end
$var reg 1 + rst $end
$var reg 7 , slave_addr [6:0] $end
$var reg 1 - slave_sda_out $end
$var reg 1 . start $end
$scope module dut $end
$var wire 1 ) clk $end
$var wire 8 / data_i [7:0] $end
$var wire 1 # i2c_sda_in $end
$var wire 1 + rst $end
$var wire 7 0 slave_addr_i [6:0] $end
$var wire 1 . start_i $end
$var parameter 32 1 CLK_DIV $end
$var reg 8 2 addr_rw [7:0] $end
$var reg 4 3 bit_cnt [3:0] $end
$var reg 1 ( busy_o $end
$var reg 16 4 clk_cnt [15:0] $end
$var reg 1 ' done_o $end
$var reg 2 5 error_o [1:0] $end
$var reg 1 % i2c_scl_enable $end
$var reg 1 $ i2c_sda_enable $end
$var reg 8 6 shift_reg [7:0] $end
$var reg 4 7 state [3:0] $end
$upscope $end
$upscope $end
$enddefinitions $end
$comment Show the parameter values. $end
$dumpall
b1010 1
$end
#0
$dumpvars
b0 7
bx 6
b0 5
b0 4
b0 3
bx 2
b1010000 0
b10100101 /
0.
0-
b1010000 ,
1+
b10100101 *
0)
0(
0'
b0 &
0%
0$
1#
1"
1!
$end
#5000
1)
#10000
0)
#15000
1)
#20000
0)
0+
#25000
1)
#30000
0)
#35000
1)
#40000
0)
1.
#45000
0#
0"
b10100101 6
b10100000 2
1(
b1 7
1)
#50000
0)
0.
#55000
b1 4
1$
1)
#60000
0)
#65000
b10 4
1)
#70000
0)
#75000
b11 4
1)
#80000
0)
#85000
b100 4
1)
#90000
0)
#95000
b101 4
1)
#100000
0)
#105000
b110 4
1)
#110000
0)
#115000
b111 4
1)
#120000
0)
#125000
b1000 4
1)
#130000
0)
#135000
b1001 4
1)
#140000
0)
#145000
b1010 4
1)
#150000
0)
#155000
0!
b111 3
b10 7
1%
b0 4
1)
#160000
0)
#165000
0#
0"
b1 4
0$
1)
#170000
0)
#175000
b10 4
1)
#180000
0)
#185000
b11 4
1)
#190000
0)
#195000
b100 4
1)
#200000
0)
#205000
b101 4
1)
#210000
0)
#215000
1!
0%
b110 4
1)
#220000
0)
#225000
b111 4
1)
#230000
0)
#235000
b1000 4
1)
#240000
0)
#245000
b1001 4
1)
#250000
0)
#255000
0!
b110 3
1%
b0 4
1)
#260000
0)
#265000
b1 4
1$
1)
#270000
0)
#275000
b10 4
1)
#280000
0)
#285000
b11 4
1)
#290000
0)
#295000
b100 4
1)
#300000
0)
#305000
b101 4
1)
#310000
0)
#315000
1!
0%
b110 4
1)
#320000
0)
#325000
b111 4
1)
#330000
0)
#335000
b1000 4
1)
#340000
0)
#345000
b1001 4
1)
#350000
0)
#355000
0!
b101 3
1%
b0 4
1)
#360000
0)
#365000
0#
0"
b1 4
0$
1)
#370000
0)
#375000
b10 4
1)
#380000
0)
#385000
b11 4
1)
#390000
0)
#395000
b100 4
1)
#400000
0)
#405000
b101 4
1)
#410000
0)
#415000
1!
0%
b110 4
1)
#420000
0)
#425000
b111 4
1)
#430000
0)
#435000
b1000 4
1)
#440000
0)
#445000
b1001 4
1)
#450000
0)
#455000
0!
b100 3
1%
b0 4
1)
#460000
0)
#465000
b1 4
1$
1)
#470000
0)
#475000
b10 4
1)
#480000
0)
#485000
b11 4
1)
#490000
0)
#495000
b100 4
1)
#500000
0)
#505000
b101 4
1)
#510000
0)
#515000
1!
0%
b110 4
1)
#520000
0)
#525000
b111 4
1)
#530000
0)
#535000
b1000 4
1)
#540000
0)
#545000
b1001 4
1)
#550000
0)
#555000
0!
b11 3
1%
b0 4
1)
#560000
0)
#565000
b1 4
1)
#570000
0)
#575000
b10 4
1)
#580000
0)
#585000
b11 4
1)
#590000
0)
#595000
b100 4
1)
#600000
0)
#605000
b101 4
1)
#610000
0)
#615000
1!
0%
b110 4
1)
#620000
0)
#625000
b111 4
1)
#630000
0)
#635000
b1000 4
1)
#640000
0)
#645000
b1001 4
1)
#650000
0)
#655000
0!
b10 3
1%
b0 4
1)
#660000
0)
#665000
b1 4
1)
#670000
0)
#675000
b10 4
1)
#680000
0)
#685000
b11 4
1)
#690000
0)
#695000
b100 4
1)
#700000
0)
#705000
b101 4
1)
#710000
0)
#715000
1!
0%
b110 4
1)
#720000
0)
#725000
b111 4
1)
#730000
0)
#735000
b1000 4
1)
#740000
0)
#745000
b1001 4
1)
#750000
0)
#755000
0!
b1 3
1%
b0 4
1)
#760000
0)
#765000
b1 4
1)
#770000
0)
#775000
b10 4
1)
#780000
0)
#785000
b11 4
1)
#790000
0)
#795000
b100 4
1)
#800000
0)
#805000
b101 4
1)
#810000
0)
#815000
1!
0%
b110 4
1)
#820000
0)
#825000
b111 4
1)
#830000
0)
#835000
b1000 4
1)
#840000
0)
#845000
b1001 4
1)
#850000
0)
#855000
0!
b0 3
1%
b0 4
1)
#860000
0)
#865000
b1 4
1)
#870000
0)
#875000
b10 4
1)
#880000
0)
#885000
b11 4
1)
#890000
0)
#895000
b100 4
1)
#900000
0)
#905000
b101 4
1)
#910000
0)
#915000
1!
0%
b110 4
1)
#920000
0)
#925000
b111 4
1)
#930000
0)
#935000
b1000 4
1)
#940000
0)
#945000
b1001 4
1)
#950000
0)
#955000
0!
b11 7
1%
b0 4
1)
#960000
0)
#965000
0#
0"
b1 4
0$
1)
#970000
0)
#975000
b10 4
1)
#980000
0)
#985000
1!
0%
b11 4
1)
#990000
0)
#995000
b100 4
1)
#1000000
0)
#1005000
b101 4
1)
#1010000
0)
#1015000
b110 4
1)
#1020000
0)
#1025000
b111 4
1)
#1030000
0)
#1035000
b1000 4
1)
#1040000
0)
#1045000
b1001 4
1)
#1050000
0)
#1055000
0!
b111 3
b100 7
1%
b0 4
1)
#1060000
0)
#1065000
b1 4
1)
#1070000
0)
#1075000
b10 4
1)
#1080000
0)
#1085000
b11 4
1)
#1090000
0)
#1095000
b100 4
1)
#1100000
0)
#1105000
b101 4
1)
#1110000
0)
#1115000
1!
0%
b110 4
1)
#1120000
0)
#1125000
b111 4
1)
#1130000
0)
#1135000
b1000 4
1)
#1140000
0)
#1145000
b1001 4
1)
#1150000
0)
#1155000
0!
b110 3
1%
b0 4
1)
#1160000
0)
#1165000
b1 4
1$
1)
#1170000
0)
#1175000
b10 4
1)
#1180000
0)
#1185000
b11 4
1)
#1190000
0)
#1195000
b100 4
1)
#1200000
0)
#1205000
b101 4
1)
#1210000
0)
#1215000
1!
0%
b110 4
1)
#1220000
0)
#1225000
b111 4
1)
#1230000
0)
#1235000
b1000 4
1)
#1240000
0)
#1245000
b1001 4
1)
#1250000
0)
#1255000
0!
b101 3
1%
b0 4
1)
#1260000
0)
#1265000
0#
0"
b1 4
0$
1)
#1270000
0)
#1275000
b10 4
1)
#1280000
0)
#1285000
b11 4
1)
#1290000
0)
#1295000
b100 4
1)
#1300000
0)
#1305000
b101 4
1)
#1310000
0)
#1315000
1!
0%
b110 4
1)
#1320000
0)
#1325000
b111 4
1)
#1330000
0)
#1335000
b1000 4
1)
#1340000
0)
#1345000
b1001 4
1)
#1350000
0)
#1355000
0!
b100 3
1%
b0 4
1)
#1360000
0)
#1365000
b1 4
1$
1)
#1370000
0)
#1375000
b10 4
1)
#1380000
0)
#1385000
b11 4
1)
#1390000
0)
#1395000
b100 4
1)
#1400000
0)
#1405000
b101 4
1)
#1410000
0)
#1415000
1!
0%
b110 4
1)
#1420000
0)
#1425000
b111 4
1)
#1430000
0)
#1435000
b1000 4
1)
#1440000
0)
#1445000
b1001 4
1)
#1450000
0)
#1455000
0!
b11 3
1%
b0 4
1)
#1460000
0)
#1465000
b1 4
1)
#1470000
0)
#1475000
b10 4
1)
#1480000
0)
#1485000
b11 4
1)
#1490000
0)
#1495000
b100 4
1)
#1500000
0)
#1505000
b101 4
1)
#1510000
0)
#1515000
1!
0%
b110 4
1)
#1520000
0)
#1525000
b111 4
1)
#1530000
0)
#1535000
b1000 4
1)
#1540000
0)
#1545000
b1001 4
1)
#1550000
0)
#1555000
0!
b10 3
1%
b0 4
1)
#1560000
0)
#1565000
0#
0"
b1 4
0$
1)
#1570000
0)
#1575000
b10 4
1)
#1580000
0)
#1585000
b11 4
1)
#1590000
0)
#1595000
b100 4
1)
#1600000
0)
#1605000
b101 4
1)
#1610000
0)
#1615000
1!
0%
b110 4
1)
#1620000
0)
#1625000
b111 4
1)
#1630000
0)
#1635000
b1000 4
1)
#1640000
0)
#1645000
b1001 4
1)
#1650000
0)
#1655000
0!
b1 3
1%
b0 4
1)
#1660000
0)
#1665000
b1 4
1$
1)
#1670000
0)
#1675000
b10 4
1)
#1680000
0)
#1685000
b11 4
1)
#1690000
0)
#1695000
b100 4
1)
#1700000
0)
#1705000
b101 4
1)
#1710000
0)
#1715000
1!
0%
b110 4
1)
#1720000
0)
#1725000
b111 4
1)
#1730000
0)
#1735000
b1000 4
1)
#1740000
0)
#1745000
b1001 4
1)
#1750000
0)
#1755000
0!
b0 3
1%
b0 4
1)
#1760000
0)
#1765000
0#
0"
b1 4
0$
1)
#1770000
0)
#1775000
b10 4
1)
#1780000
0)
#1785000
b11 4
1)
#1790000
0)
#1795000
b100 4
1)
#1800000
0)
#1805000
b101 4
1)
#1810000
0)
#1815000
1!
0%
b110 4
1)
#1820000
0)
#1825000
b111 4
1)
#1830000
0)
#1835000
b1000 4
1)
#1840000
0)
#1845000
b1001 4
1)
#1850000
0)
#1855000
0!
b101 7
1%
b0 4
1)
#1860000
0)
#1865000
b1 4
1)
#1870000
0)
#1875000
b10 4
1)
#1880000
0)
#1885000
1!
0%
b11 4
1)
#1890000
0)
#1895000
b100 4
1)
#1900000
0)
#1905000
b101 4
1)
#1910000
0)
#1915000
b110 4
1)
#1920000
0)
#1925000
b111 4
1)
#1930000
0)
#1935000
b1000 4
1)
#1940000
0)
#1945000
b1001 4
1)
#1950000
0)
#1955000
0!
b110 7
1%
b0 4
1)
#1960000
0)
#1965000
1#
1"
1!
0(
1'
b0 7
0%
1)
