verification/spi_tb.vcd
$date
	Fri Feb 06 22:32:23 2026
$end
$version
	Icarus Verilog
$end
$timescale
	1ps
$end
$scope module spi_tb $end
$var wire 1 ! sck $end
$var wire 1 " mosi $end
$var wire 1 # miso $end
$var wire 1 $ error $end
$var wire 1 % done $end
$var wire 8 & data_o [7:0] $end
$var wire 1 ' cs_n $end
$var reg 1 ( clk $end
$var reg 8 ) data_i [7:0] $end
$var reg 1 * rst $end
$var reg 8 + slave_data [7:0] $end
$var reg 1 , start $end
$var integer 32 - bit_idx [31:0] $end
$scope module dut $end
$var wire 1 ( clk $end
$var wire 8 . data_i [7:0] $end
$var wire 1 # miso_i $end
$var wire 1 * rst $end
$var wire 1 , start_i $end
$var parameter 32 / CLK_DIV $end
$var parameter 32 0 WATCHDOG_LIMIT $end
$var reg 4 1 bit_cnt [3:0] $end
$var reg 16 2 clk_cnt [15:0] $end
$var reg 1 ' cs_n_o $end
$var reg 8 3 data_o [7:0] $end
$var reg 1 % done_o $end
$var reg 1 $ error_o $end
$var reg 1 " mosi_o $end
$var reg 1 ! sck_o $end
$var reg 8 4 shift_reg [7:0] $end
$var reg 1 5 state $end
$var reg 32 6 watchdog_timer [31:0] $end
$upscope $end
$upscope $end
$enddefinitions $end
$comment Show the parameter values. $end
$dumpall
b11000011010100000 0
b10 /
$end
#0
$dumpvars
b0 6
05
b0 4
bx 3
b0 2
b0 1
b0 .
b111 -
0,
b1011010 +
1*
b0 )
0(
1'
bx &
0%
0$
0#
0"
0!
$end
#5000
1(
#10000
0(
#15000
1(
#20000
0(
0*
#25000
1(
#30000
0(
#35000
1(
#40000
0(
1,
b10100101 )
b10100101 .
#45000
1"
0'
15
b10100101 4
1(
#50000
0(
0,
#55000
b1 2
b1 6
1(
#60000
0(
#65000
b10100100 4
1!
b0 2
b10 6
1(
#70000
0(
#75000
b1 2
b11 6
1(
#80000
0(
#85000
1#
b110 -
b1001000 4
0"
b1 1
0!
b0 2
b100 6
1(
#90000
0(
#95000
b1 2
b101 6
1(
#100000
0(
#105000
b1001001 4
1!
b0 2
b110 6
1(
#110000
0(
#115000
b1 2
b111 6
1(
#120000
0(
#125000
0#
b101 -
b10010010 4
1"
b10 1
0!
b0 2
b1000 6
1(
#130000
0(
#135000
b1 2
b1001 6
1(
#140000
0(
#145000
1!
b0 2
b1010 6
1(
#150000
0(
#155000
b1 2
b1011 6
1(
#160000
0(
#165000
1#
b100 -
b100100 4
0"
b11 1
0!
b0 2
b1100 6
1(
#170000
0(
#175000
b1 2
b1101 6
1(
#180000
0(
#185000
b100101 4
1!
b0 2
b1110 6
1(
#190000
0(
#195000
b1 2
b1111 6
1(
#200000
0(
#205000
b11 -
b1001010 4
b100 1
0!
b0 2
b10000 6
1(
#210000
0(
#215000
b1 2
b10001 6
1(
#220000
0(
#225000
b1001011 4
1!
b0 2
b10010 6
1(
#230000
0(
#235000
b1 2
b10011 6
1(
#240000
0(
#245000
0#
b10 -
b10010110 4
1"
b101 1
0!
b0 2
b10100 6
1(
#250000
0(
#255000
b1 2
b10101 6
1(
#260000
0(
#265000
1!
b0 2
b10110 6
1(
#270000
0(
#275000
b1 2
b10111 6
1(
#280000
0(
#285000
1#
b1 -
b101100 4
0"
b110 1
0!
b0 2
b11000 6
1(
#290000
0(
#295000
b1 2
b11001 6
1(
#300000
0(
#305000
b101101 4
1!
b0 2
b11010 6
1(
#310000
0(
#315000
b1 2
b11011 6
1(
#320000
0(
#325000
0#
b0 -
b1011010 4
b111 1
0!
b0 2
b11100 6
1(
#330000
0(
#335000
b1 2
b11101 6
1(
#340000
0(
#345000
1!
b0 2
b11110 6
1(
#350000
0(
#355000
b1 2
b11111 6
1(
#360000
0(
#365000
b111 -
b1011010 &
b1011010 3
1%
1'
05
0!
b0 2
b100000 6
1(
#370000
0(
#375000
b0 6
0%
1(
