verification/uart_tb.vcd
$date
	Fri Feb 06 22:30:46 2026
$end
$version
	Icarus Verilog
$end
$timescale
	1ps
$end
$scope module uart_tb $end
$var wire 1 ! tx_line $end
$var wire 1 " tx_busy $end
$var wire 1 # error $end
$var reg 1 $ clk $end
$var reg 1 % rst $end
$var reg 8 & tx_data [7:0] $end
$var reg 1 ' tx_start $end
$scope module dut $end
$var wire 1 $ clk $end
$var wire 1 % rst $end
$var wire 8 ( tx_data_i [7:0] $end
$var wire 1 ' tx_start_i $end
$var parameter 32 ) BAUD_RATE $end
$var parameter 32 * CLKS_PER_BIT $end
$var parameter 32 + CLK_FREQ $end
$var parameter 1 , PARITY_ODD $end
$var reg 3 - bit_index [2:0] $end
$var reg 16 . clk_count [15:0] $end
$var reg 8 / data_reg [7:0] $end
$var reg 1 # error_o $end
$var reg 1 0 parity_bit $end
$var reg 3 1 state [2:0] $end
$var reg 1 " tx_busy_o $end
$var reg 1 ! tx_line_o $end
$upscope $end
$upscope $end
$enddefinitions $end
$comment Show the parameter values. $end
$dumpall
0,
b11110100001001000000 +
b1000 *
b11100001000000000 )
$end
#0
$dumpvars
b0 1
00
bx /
b0 .
b0 -
b0 (
0'
b0 &
1%
0$
0#
0"
1!
$end
#500000
1$
#1000000
0$
#1500000
1$
#2000000
0$
0%
#2500000
1$
#3000000
0$
#3500000
1$
#4000000
0$
1'
b10100101 &
b10100101 (
#4500000
1"
b1 1
b10100101 /
1$
#5000000
0$
0'
#5500000
b1 .
0!
1$
#6000000
0$
#6500000
b10 .
1$
#7000000
0$
#7500000
b11 .
1$
#8000000
0$
#8500000
b100 .
1$
#9000000
0$
#9500000
b101 .
1$
#10000000
0$
#10500000
b110 .
1$
#11000000
0$
#11500000
b111 .
1$
#12000000
0$
#12500000
b10 1
b0 .
1$
#13000000
0$
#13500000
b1 .
1!
1$
#14000000
0$
#14500000
b10 .
1$
#15000000
0$
#15500000
b11 .
1$
#16000000
0$
#16500000
b100 .
1$
#17000000
0$
#17500000
b101 .
1$
#18000000
0$
#18500000
b110 .
1$
#19000000
0$
#19500000
b111 .
1$
#20000000
0$
#20500000
b1 -
b0 .
1$
#21000000
0$
#21500000
b1 .
0!
1$
#22000000
0$
#22500000
b10 .
1$
#23000000
0$
#23500000
b11 .
1$
#24000000
0$
#24500000
b100 .
1$
#25000000
0$
#25500000
b101 .
1$
#26000000
0$
#26500000
b110 .
1$
#27000000
0$
#27500000
b111 .
1$
#28000000
0$
#28500000
b10 -
b0 .
1$
#29000000
0$
#29500000
b1 .
1!
1$
#30000000
0$
#30500000
b10 .
1$
#31000000
0$
#31500000
b11 .
1$
#32000000
0$
#32500000
b100 .
1$
#33000000
0$
#33500000
b101 .
1$
#34000000
0$
#34500000
b110 .
1$
#35000000
0$
#35500000
b111 .
1$
#36000000
0$
#36500000
b11 -
b0 .
1$
#37000000
0$
#37500000
b1 .
0!
1$
#38000000
0$
#38500000
b10 .
1$
#39000000
0$
#39500000
b11 .
1$
#40000000
0$
#40500000
b100 .
1$
#41000000
0$
#41500000
b101 .
1$
#42000000
0$
#42500000
b110 .
1$
#43000000
0$
#43500000
b111 .
1$
#44000000
0$
#44500000
b100 -
b0 .
1$
#45000000
0$
#45500000
b1 .
1$
#46000000
0$
#46500000
b10 .
1$
#47000000
0$
#47500000
b11 .
1$
#48000000
0$
#48500000
b100 .
1$
#49000000
0$
#49500000
b101 .
1$
#50000000
0$
#50500000
b110 .
1$
#51000000
0$
#51500000
b111 .
1$
#52000000
0$
#52500000
b101 -
b0 .
1$
#53000000
0$
#53500000
b1 .
1!
1$
#54000000
0$
#54500000
b10 .
1$
#55000000
0$
#55500000
b11 .
1$
#56000000
0$
#56500000
b100 .
1$
#57000000
0$
#57500000
b101 .
1$
#58000000
0$
#58500000
b110 .
1$
#59000000
0$
#59500000
b111 .
1$
#60000000
0$
#60500000
b110 -
b0 .
1$
#61000000
0$
#61500000
b1 .
0!
1$
#62000000
0$
#62500000
b10 .
1$
#63000000
0$
#63500000
b11 .
1$
#64000000
0$
#64500000
b100 .
1$
#65000000
0$
#65500000
b101 .
1$
#66000000
0$
#66500000
b110 .
1$
#67000000
0$
#67500000
b111 .
1$
#68000000
0$
#68500000
b111 -
b0 .
1$
#69000000
0$
#69500000
b1 .
1!
1$
#70000000
0$
#70500000
b10 .
1$
#71000000
0$
#71500000
b11 .
1$
#72000000
0$
#72500000
b100 .
1$
#73000000
0$
#73500000
b101 .
1$
#74000000
0$
#74500000
b110 .
1$
#75000000
0$
#75500000
b111 .
1$
#76000000
0$
#76500000
b11 1
b0 -
b0 .
1$
#77000000
0$
#77500000
b1 .
0!
1$
#78000000
0$
#78500000
b10 .
1$
#79000000
0$
#79500000
b11 .
1$
#80000000
0$
#80500000
b100 .
1$
#81000000
0$
#81500000
b101 .
1$
#82000000
0$
#82500000
b110 .
1$
#83000000
0$
#83500000
b111 .
1$
#84000000
0$
#84500000
b100 1
b0 .
1$
#85000000
0$
#85500000
b1 .
1!
1$
#86000000
0$
#86500000
b10 .
1$
#87000000
0$
#87500000
b11 .
1$
#88000000
0$
#88500000
b100 .
1$
#89000000
0$
#89500000
b101 .
1$
#90000000
0$
#90500000
b110 .
1$
#91000000
0$
#91500000
b111 .
1$
#92000000
0$
#92500000
0"
b0 1
b0 .
1$
